Library\Bee\artifacts\mvdfrm\Unity.VisualScripting.Core.Editor.ref.dll_EDC8690F57C5BDFD.mvfrm
Library\Bee\artifacts\mvdfrm\Unity.VisualScripting.Core.ref.dll_D75DF4EA1AFE54F4.mvfrm
Library\Bee\artifacts\mvdfrm\Unity.VisualScripting.Flow.Editor.ref.dll_6AF951BE66A4493E.mvfrm
Library\Bee\artifacts\mvdfrm\Unity.VisualScripting.Flow.ref.dll_1E6ED5409D07C9A3.mvfrm
Library\Bee\artifacts\mvdfrm\Unity.VisualScripting.State.ref.dll_D91762B7076BE462.mvfrm
Library\Bee\artifacts\mvdfrm\UnityEditor.TestRunner.ref.dll_193EC4CE382CBFB3.mvfrm
Library\Bee\artifacts\mvdfrm\UnityEditor.UI.ref.dll_4C98D3F7040CD4F5.mvfrm
Library\Bee\artifacts\mvdfrm\UnityEngine.TestRunner.ref.dll_E55D0F7C63F01D9E.mvfrm
Library\Bee\artifacts\mvdfrm\UnityEngine.UI.ref.dll_08FEAA520A2EFD60.mvfrm
Library\Bee\artifacts\mvdfrm\UnityEditor.Graphs.dll_60D7506428DBCC98.mvfrm
Library\Bee\artifacts\mvdfrm\UnityEditor.AccessibilityModule.dll_B98A09D0ECA1DF5B.mvfrm
Library\Bee\artifacts\mvdfrm\UnityEditor.AdaptivePerformanceModule.dll_663DC24A22471E47.mvfrm
Library\Bee\artifacts\mvdfrm\UnityEditor.BuildProfileModule.dll_FE3AD8AA8E902502.mvfrm
Library\Bee\artifacts\mvdfrm\UnityEditor.CoreModule.dll_820E3B0B55912866.mvfrm
Library\Bee\artifacts\mvdfrm\UnityEditor.DeviceSimulatorModule.dll_AFFE8382C9671C3B.mvfrm
Library\Bee\artifacts\mvdfrm\UnityEditor.DiagnosticsModule.dll_776533F272C947C9.mvfrm
Library\Bee\artifacts\mvdfrm\UnityEditor.dll_44F481CF986ED44F.mvfrm
Library\Bee\artifacts\mvdfrm\UnityEditor.EditorToolbarModule.dll_EF861FA3663790AB.mvfrm
Library\Bee\artifacts\mvdfrm\UnityEditor.GraphToolsFoundationModule.dll_60CA4103FD059947.mvfrm
Library\Bee\artifacts\mvdfrm\UnityEditor.GraphViewModule.dll_6A91705FDB05CC80.mvfrm
Library\Bee\artifacts\mvdfrm\UnityEditor.GridAndSnapModule.dll_811E1A73F62E04B8.mvfrm
Library\Bee\artifacts\mvdfrm\UnityEditor.GridModule.dll_5F7F56F96DE5BE5D.mvfrm
Library\Bee\artifacts\mvdfrm\UnityEditor.MultiplayerModule.dll_C04034EED4947607.mvfrm
Library\Bee\artifacts\mvdfrm\UnityEditor.Physics2DModule.dll_CFD6EB9070DFE6D6.mvfrm
Library\Bee\artifacts\mvdfrm\UnityEditor.PhysicsModule.dll_F2F5BDB892E08F24.mvfrm
Library\Bee\artifacts\mvdfrm\UnityEditor.PresetsUIModule.dll_25F7A941DD5E2485.mvfrm
Library\Bee\artifacts\mvdfrm\UnityEditor.PropertiesModule.dll_EF6F1CFADD94E49A.mvfrm
Library\Bee\artifacts\mvdfrm\UnityEditor.QuickSearchModule.dll_0274B4FFCBA04422.mvfrm
Library\Bee\artifacts\mvdfrm\UnityEditor.SafeModeModule.dll_C203B94697D3E667.mvfrm
Library\Bee\artifacts\mvdfrm\UnityEditor.SceneTemplateModule.dll_1325906165243AE3.mvfrm
Library\Bee\artifacts\mvdfrm\UnityEditor.SceneViewModule.dll_A9415367D028998E.mvfrm
Library\Bee\artifacts\mvdfrm\UnityEditor.ShaderFoundryModule.dll_520560A487D3B771.mvfrm
Library\Bee\artifacts\mvdfrm\UnityEditor.SketchUpModule.dll_AA189E96E305827E.mvfrm
Library\Bee\artifacts\mvdfrm\UnityEditor.SpriteMaskModule.dll_AB60504C8C1915D8.mvfrm
Library\Bee\artifacts\mvdfrm\UnityEditor.SpriteShapeModule.dll_59F945BCD16F2099.mvfrm
Library\Bee\artifacts\mvdfrm\UnityEditor.TerrainModule.dll_0D3C3927689ED812.mvfrm
Library\Bee\artifacts\mvdfrm\UnityEditor.TextCoreFontEngineModule.dll_8398C6BF705A8F24.mvfrm
Library\Bee\artifacts\mvdfrm\UnityEditor.TextCoreTextEngineModule.dll_CB80FD30FFDE4842.mvfrm
Library\Bee\artifacts\mvdfrm\UnityEditor.TextRenderingModule.dll_5CC8B29CB780EC3C.mvfrm
Library\Bee\artifacts\mvdfrm\UnityEditor.TilemapModule.dll_AC38A0A8805BB91B.mvfrm
Library\Bee\artifacts\mvdfrm\UnityEditor.TreeModule.dll_DFBA3019DD56BDA5.mvfrm
Library\Bee\artifacts\mvdfrm\UnityEditor.UIAutomationModule.dll_AEDBC79B2B03EDC2.mvfrm
Library\Bee\artifacts\mvdfrm\UnityEditor.UIBuilderModule.dll_BF1A1D7C4DBE45B4.mvfrm
Library\Bee\artifacts\mvdfrm\UnityEditor.UIElementsModule.dll_1A4C18165D8D39E2.mvfrm
Library\Bee\artifacts\mvdfrm\UnityEditor.UIElementsSamplesModule.dll_4526327D0D0DDBAB.mvfrm
Library\Bee\artifacts\mvdfrm\UnityEditor.UnityConnectModule.dll_F974E620B3740A1C.mvfrm
Library\Bee\artifacts\mvdfrm\UnityEditor.VFXModule.dll_24BB67CE5369E065.mvfrm
Library\Bee\artifacts\mvdfrm\UnityEditor.VideoModule.dll_8380EBFB6F433398.mvfrm
Library\Bee\artifacts\mvdfrm\UnityEditor.XRModule.dll_1AFF83836E838AB1.mvfrm
Library\Bee\artifacts\mvdfrm\UnityEngine.AccessibilityModule.dll_45CAFBF8659A6280.mvfrm
Library\Bee\artifacts\mvdfrm\UnityEngine.AIModule.dll_D8698D5B52C4E5FA.mvfrm
Library\Bee\artifacts\mvdfrm\UnityEngine.AndroidJNIModule.dll_989500E9A6ACA8B8.mvfrm
Library\Bee\artifacts\mvdfrm\UnityEngine.AnimationModule.dll_3916EC88B562A126.mvfrm
Library\Bee\artifacts\mvdfrm\UnityEngine.ARModule.dll_91DC525EAFE244C3.mvfrm
Library\Bee\artifacts\mvdfrm\UnityEngine.AssetBundleModule.dll_465DE7F12E06F914.mvfrm
Library\Bee\artifacts\mvdfrm\UnityEngine.AudioModule.dll_24A423F4DE2E4898.mvfrm
Library\Bee\artifacts\mvdfrm\UnityEngine.ClothModule.dll_8B8C80EFB84B277C.mvfrm
Library\Bee\artifacts\mvdfrm\UnityEngine.ClusterInputModule.dll_79115B3664FBDCE2.mvfrm
Library\Bee\artifacts\mvdfrm\UnityEngine.ClusterRendererModule.dll_B5AB45F4392229BF.mvfrm
Library\Bee\artifacts\mvdfrm\UnityEngine.CommandStateObserverModule.dll_118E346C3F210A1E.mvfrm
Library\Bee\artifacts\mvdfrm\UnityEngine.ContentLoadModule.dll_DF744131FC89A101.mvfrm
Library\Bee\artifacts\mvdfrm\UnityEngine.CoreModule.dll_A52F0E5DFD969391.mvfrm
Library\Bee\artifacts\mvdfrm\UnityEngine.CrashReportingModule.dll_BA77F2F549468BC9.mvfrm
Library\Bee\artifacts\mvdfrm\UnityEngine.DirectorModule.dll_BD1A7BC71B9EBDEE.mvfrm
Library\Bee\artifacts\mvdfrm\UnityEngine.dll_7798C8A7F6E26134.mvfrm
Library\Bee\artifacts\mvdfrm\UnityEngine.DSPGraphModule.dll_C26BDD308DFF8F0F.mvfrm
Library\Bee\artifacts\mvdfrm\UnityEngine.GameCenterModule.dll_C2E24B046CED99A9.mvfrm
Library\Bee\artifacts\mvdfrm\UnityEngine.GIModule.dll_70A5D668EE73CE14.mvfrm
Library\Bee\artifacts\mvdfrm\UnityEngine.GraphToolsFoundationModule.dll_E43D4E1B71DAEF72.mvfrm
Library\Bee\artifacts\mvdfrm\UnityEngine.GridModule.dll_82A02A4C15EB2988.mvfrm
Library\Bee\artifacts\mvdfrm\UnityEngine.HierarchyCoreModule.dll_BCE598D2D447BB76.mvfrm
Library\Bee\artifacts\mvdfrm\UnityEngine.HotReloadModule.dll_BA5FAA8E9095BCA8.mvfrm
Library\Bee\artifacts\mvdfrm\UnityEngine.ImageConversionModule.dll_219D43A4BB46E1B3.mvfrm
Library\Bee\artifacts\mvdfrm\UnityEngine.IMGUIModule.dll_5D03C35BA45FDC79.mvfrm
Library\Bee\artifacts\mvdfrm\UnityEngine.InputForUIModule.dll_C594A51DCD0E3665.mvfrm
Library\Bee\artifacts\mvdfrm\UnityEngine.InputLegacyModule.dll_D7A3030FC5F8AF05.mvfrm
Library\Bee\artifacts\mvdfrm\UnityEngine.InputModule.dll_8B19EBA554666D3C.mvfrm
Library\Bee\artifacts\mvdfrm\UnityEngine.JSONSerializeModule.dll_A5E2853464D5C30A.mvfrm
Library\Bee\artifacts\mvdfrm\UnityEngine.LocalizationModule.dll_B75E2588FC77CFDB.mvfrm
Library\Bee\artifacts\mvdfrm\UnityEngine.MarshallingModule.dll_EEC68686122F2666.mvfrm
Library\Bee\artifacts\mvdfrm\UnityEngine.MultiplayerModule.dll_C606047DE6CE868C.mvfrm
Library\Bee\artifacts\mvdfrm\UnityEngine.NVIDIAModule.dll_418C12B4CD14541D.mvfrm
Library\Bee\artifacts\mvdfrm\UnityEngine.ParticleSystemModule.dll_0D8A3C41B7581757.mvfrm
Library\Bee\artifacts\mvdfrm\UnityEngine.PerformanceReportingModule.dll_32DAB1FD1193F950.mvfrm
Library\Bee\artifacts\mvdfrm\UnityEngine.Physics2DModule.dll_85BCDC79565F98BB.mvfrm
Library\Bee\artifacts\mvdfrm\UnityEngine.PhysicsModule.dll_E5707662F7EF7669.mvfrm
Library\Bee\artifacts\mvdfrm\UnityEngine.ProfilerModule.dll_EF60B4FDB4F844FB.mvfrm
Library\Bee\artifacts\mvdfrm\UnityEngine.PropertiesModule.dll_F01D8A42DFD8FDE5.mvfrm
Library\Bee\artifacts\mvdfrm\UnityEngine.RuntimeInitializeOnLoadManagerInitializerModule.dll_5F5D57530072FF84.mvfrm
Library\Bee\artifacts\mvdfrm\UnityEngine.ScreenCaptureModule.dll_BFCA32B97941EF6C.mvfrm
Library\Bee\artifacts\mvdfrm\UnityEngine.SharedInternalsModule.dll_A5AE827A3274DD03.mvfrm
Library\Bee\artifacts\mvdfrm\UnityEngine.SpriteMaskModule.dll_AC0EBD948E5D2F23.mvfrm
Library\Bee\artifacts\mvdfrm\UnityEngine.SpriteShapeModule.dll_5FBF154BE3A9311E.mvfrm
Library\Bee\artifacts\mvdfrm\UnityEngine.StreamingModule.dll_EDABD9D904EA5864.mvfrm
Library\Bee\artifacts\mvdfrm\UnityEngine.SubstanceModule.dll_CA56EE22503D5672.mvfrm
Library\Bee\artifacts\mvdfrm\UnityEngine.SubsystemsModule.dll_16BC23F65CA51736.mvfrm
Library\Bee\artifacts\mvdfrm\UnityEngine.TerrainModule.dll_FFB6F1D1CDADBF57.mvfrm
Library\Bee\artifacts\mvdfrm\UnityEngine.TerrainPhysicsModule.dll_0E04E514D09B11E4.mvfrm
Library\Bee\artifacts\mvdfrm\UnityEngine.TextCoreFontEngineModule.dll_01F8421283584DEF.mvfrm
Library\Bee\artifacts\mvdfrm\UnityEngine.TextCoreTextEngineModule.dll_49E0788412DC070D.mvfrm
Library\Bee\artifacts\mvdfrm\UnityEngine.TextRenderingModule.dll_E909A4C430796F61.mvfrm
Library\Bee\artifacts\mvdfrm\UnityEngine.TilemapModule.dll_9EB35952E56AA060.mvfrm
Library\Bee\artifacts\mvdfrm\UnityEngine.TLSModule.dll_AFFE71B2ECAC84FD.mvfrm
Library\Bee\artifacts\mvdfrm\UnityEngine.UIElementsModule.dll_1AFA855E5FD1532D.mvfrm
Library\Bee\artifacts\mvdfrm\UnityEngine.UIModule.dll_D3DD2B88AF0BEBA6.mvfrm
Library\Bee\artifacts\mvdfrm\UnityEngine.UmbraModule.dll_9F78D00D6B54F40B.mvfrm
Library\Bee\artifacts\mvdfrm\UnityEngine.UnityAnalyticsCommonModule.dll_CE196F412B7C97AE.mvfrm
Library\Bee\artifacts\mvdfrm\UnityEngine.UnityAnalyticsModule.dll_2D29AD0B637F6953.mvfrm
Library\Bee\artifacts\mvdfrm\UnityEngine.UnityConnectModule.dll_E6D46A2FADFC0AC7.mvfrm
Library\Bee\artifacts\mvdfrm\UnityEngine.UnityCurlModule.dll_6C338DBA25769313.mvfrm
Library\Bee\artifacts\mvdfrm\UnityEngine.UnityTestProtocolModule.dll_00E8E86F67093101.mvfrm
Library\Bee\artifacts\mvdfrm\UnityEngine.UnityWebRequestAssetBundleModule.dll_CD98CD382689D264.mvfrm
Library\Bee\artifacts\mvdfrm\UnityEngine.UnityWebRequestAudioModule.dll_AAD705DB97FEC3E8.mvfrm
Library\Bee\artifacts\mvdfrm\UnityEngine.UnityWebRequestModule.dll_333C4B4EC63B7C32.mvfrm
Library\Bee\artifacts\mvdfrm\UnityEngine.UnityWebRequestTextureModule.dll_05426880A97E66BD.mvfrm
Library\Bee\artifacts\mvdfrm\UnityEngine.UnityWebRequestWWWModule.dll_14A2BDE0029BC379.mvfrm
Library\Bee\artifacts\mvdfrm\UnityEngine.VehiclesModule.dll_34DD754695C88D89.mvfrm
Library\Bee\artifacts\mvdfrm\UnityEngine.VFXModule.dll_30DD0A21C319EE6A.mvfrm
Library\Bee\artifacts\mvdfrm\UnityEngine.VideoModule.dll_49ADA85FA0C0643D.mvfrm
Library\Bee\artifacts\mvdfrm\UnityEngine.VirtualTexturingModule.dll_430A531CDA0822EF.mvfrm
Library\Bee\artifacts\mvdfrm\UnityEngine.VRModule.dll_26AF520E50C6711E.mvfrm
Library\Bee\artifacts\mvdfrm\UnityEngine.WindModule.dll_1B7DE9868ECD11FA.mvfrm
Library\Bee\artifacts\mvdfrm\UnityEngine.XRModule.dll_596E1512DA00BE7C.mvfrm
Library\Bee\artifacts\mvdfrm\UnityEditor.WindowsStandalone.Extensions.dll_A4108C3B2D01059A.mvfrm
Library\Bee\artifacts\mvdfrm\Unity.Plastic.Antlr3.Runtime.dll_DBC5D081C4D6AF26.mvfrm
Library\Bee\artifacts\mvdfrm\Unity.Plastic.Newtonsoft.Json.dll_B06B77423C8110AF.mvfrm
Library\Bee\artifacts\mvdfrm\Unity.Collections.LowLevel.ILSupport.dll_2E40CE80E145E521.mvfrm
Library\Bee\artifacts\mvdfrm\Unity.VisualScripting.IonicZip.dll_BE5647D59BA90757.mvfrm
Library\Bee\artifacts\mvdfrm\Unity.VisualScripting.YamlDotNet.dll_73B4528AAC4BDD55.mvfrm
Library\Bee\artifacts\mvdfrm\Unity.VisualScripting.TextureAssets.dll_0AD27BDE6D193B4D.mvfrm
Library\Bee\artifacts\mvdfrm\Unity.VisualScripting.Antlr3.Runtime.dll_2521796BDD14ED74.mvfrm